<svg width="36" height="36" viewBox="0 0 36 36" fill="none" xmlns="http://www.w3.org/2000/svg">
<path d="M34.7695 2.45703H1.23047C0.552023 2.45703 0 3.00905 0 3.6875V8.0184C0 8.70022 1.05469 8.70022 1.05469 8.0184V3.6875C1.05469 3.59061 1.13351 3.51172 1.23047 3.51172H34.7695C34.8665 3.51172 34.9453 3.59061 34.9453 3.6875V29.4035C34.9453 29.5004 34.8665 29.5793 34.7695 29.5793H28.0117V28.482H33.3156C33.6069 28.482 33.843 28.2459 33.843 27.9547V22.4324C33.843 21.7506 32.7883 21.7506 32.7883 22.4324V27.4273H28.0117V25.0875C28.0288 25.089 28.0461 25.0905 28.0624 25.092C28.5001 25.1304 29.0446 25.1783 29.4218 24.8004C29.7986 24.4229 29.751 23.8778 29.7127 23.4398C29.6714 22.9698 29.7158 22.8411 30.0771 22.5408C31.0072 21.7674 31.0245 20.9392 30.0771 20.1516C29.7158 19.8511 29.6716 19.7225 29.7127 19.2524C29.8159 18.0728 29.2649 17.4947 28.0624 17.6004C27.593 17.6416 27.4657 17.597 27.1664 17.2357C26.3942 16.3033 25.5655 16.2861 24.7789 17.2357C24.4796 17.5969 24.3524 17.6417 23.883 17.6004C22.7026 17.4967 22.1273 18.0507 22.2327 19.2524C22.2737 19.7226 22.2295 19.8511 21.8682 20.1516C20.9381 20.925 20.9209 21.7532 21.8682 22.5408C22.2295 22.8413 22.2737 22.9699 22.2327 23.44C22.1219 24.7034 22.7254 25.1919 23.9335 25.0876V27.4275H3.2118V5.66363H32.7883V19.6199C32.7883 20.3017 33.843 20.3017 33.843 19.6199V5.13629C33.843 4.84505 33.6069 4.60895 33.3156 4.60895H2.68446C2.39316 4.60895 2.15712 4.84505 2.15712 5.13629V27.9547C2.15712 28.2459 2.39316 28.482 2.68446 28.482H23.9335V29.5793H1.23047C1.13351 29.5793 1.05469 29.5004 1.05469 29.4035V10.6902C1.05469 10.0084 0 10.0084 0 10.6902V29.4035C0 30.082 0.552023 30.634 1.23047 30.634H23.9335V33.0211C24.0086 33.4545 24.2586 33.6139 24.6833 33.4992L25.9726 32.8995L27.2619 33.4992C27.5809 33.6476 28.0117 33.4131 28.0117 33.0211V30.634H34.7695C35.448 30.634 36 30.082 36 29.4035V3.6875C36 3.00898 35.448 2.45703 34.7695 2.45703ZM23.7906 24.0412C23.2627 24.0877 23.2371 24.0594 23.2832 23.5318C23.3541 22.722 23.1678 22.2495 22.5424 21.7296C22.1145 21.3738 22.1145 21.3183 22.5424 20.9624C23.1678 20.4425 23.3542 19.97 23.2832 19.1603C23.2371 18.6326 23.2627 18.6046 23.7906 18.6508C24.6004 18.7222 25.0723 18.5345 25.591 17.9083C25.9455 17.4805 25.9997 17.4805 26.3541 17.9083C26.8729 18.5345 27.3447 18.7219 28.1545 18.6508C28.6825 18.6044 28.708 18.6326 28.6619 19.1603C28.591 19.97 28.7773 20.4425 29.4027 20.9624C29.8306 21.3182 29.8308 21.3738 29.4026 21.7296C28.7772 22.2496 28.5909 22.7219 28.6618 23.5317C28.7082 24.0593 28.6824 24.0876 28.1546 24.0412C27.8234 24.0121 27.4476 23.9791 27.1169 24.1164C26.7967 24.2494 26.5717 24.521 26.354 24.7838C26.2515 24.9075 26.0644 25.1334 25.9725 25.1739C25.8806 25.1334 25.6935 24.9075 25.5909 24.7838C25.3733 24.5211 25.1483 24.2494 24.8281 24.1164C24.4868 24.0124 24.141 23.9873 23.7906 24.0412ZM26.195 31.8399C26.0539 31.7743 25.8912 31.7743 25.7502 31.8399L24.9882 32.1943V25.701C25.2385 25.9761 25.5472 26.2316 25.9726 26.2316C26.398 26.2316 26.7067 25.9762 26.957 25.7011V32.1943L26.195 31.8399Z" fill="#D39694"/>
<path d="M6.83905 10.0781H25.0181C25.7 10.0781 25.7 9.02344 25.0181 9.02344H6.83905C6.15716 9.02344 6.15716 10.0781 6.83905 10.0781Z" fill="#D39694"/>
<path d="M29.6887 12.7578C29.6887 12.4666 29.4527 12.2305 29.1614 12.2305H6.839C6.15718 12.2305 6.15718 13.2852 6.839 13.2852H29.1615C29.4527 13.2852 29.6887 13.049 29.6887 12.7578Z" fill="#D39694"/>
<path d="M20.0489 15.9668C20.0489 15.6756 19.8129 15.4395 19.5216 15.4395H6.839C6.15718 15.4395 6.15718 16.4941 6.839 16.4941H19.5216C19.8128 16.4941 20.0489 16.258 20.0489 15.9668Z" fill="#D39694"/>
<path d="M13.1236 23.3163C12.8361 23.3168 12.5485 23.3172 12.261 23.3174C11.7078 23.3178 11.4033 23.1703 11.2903 22.5838C11.1872 22.0484 10.4149 22.1166 10.2733 22.5838C10.2107 22.7907 9.89427 23.3831 9.61787 23.3347C9.47141 23.309 9.40742 23.0831 9.35328 22.9661C9.24788 22.7383 9.1711 22.497 9.10536 22.2551C8.82777 21.2332 8.77236 20.1662 8.59869 19.125C8.498 18.5212 7.57768 18.6919 7.56285 19.2652C7.5156 21.0913 7.21705 22.8923 6.56694 24.6039C6.3257 25.2391 7.34488 25.5137 7.58394 24.8844C7.8346 24.2244 8.03359 23.5486 8.18799 22.8628C8.27082 23.1127 8.36961 23.3578 8.4902 23.5962C8.79817 24.2049 9.42627 24.5649 10.0983 24.2942C10.3382 24.1976 10.557 24.0287 10.7432 23.8232C11.2422 24.3986 11.9844 24.3725 12.677 24.3716C13.7209 24.3703 14.7648 24.3678 15.8088 24.365C16.4874 24.3631 16.4887 23.3084 15.8088 23.3103C14.9137 23.3128 14.0187 23.3148 13.1236 23.3163Z" fill="#D39694"/>
<path d="M25.9728 23.4066C27.1086 23.4066 28.0326 22.4826 28.0326 21.3468C28.0326 20.2111 27.1086 19.2871 25.9728 19.2871C24.8371 19.2871 23.9131 20.2112 23.9131 21.3468C23.9131 22.4825 24.8371 23.4066 25.9728 23.4066ZM25.9728 20.3418C26.527 20.3418 26.9779 20.7927 26.9779 21.3468C26.9779 21.901 26.527 22.3519 25.9728 22.3519C25.4186 22.3519 24.9678 21.901 24.9678 21.3468C24.9678 20.7926 25.4186 20.3418 25.9728 20.3418Z" fill="#D39694"/>
</svg>
