<svg width="48" height="48" viewBox="0 0 48 48" fill="none" xmlns="http://www.w3.org/2000/svg">
<path d="M43.7812 5.71875H4.21875C1.89544 5.71875 0 7.61212 0 9.9375V38.0625C0 40.38 1.887 42.2812 4.21875 42.2812H43.7812C46.0987 42.2812 48 40.3942 48 38.0625V9.9375C48 7.62 46.113 5.71875 43.7812 5.71875ZM43.1987 8.53125L24.0894 27.6406L4.81491 8.53125H43.1987ZM2.8125 37.4801V10.5065L16.3574 23.9352L2.8125 37.4801ZM4.80122 39.4688L18.3547 25.9153L23.1038 30.6236C23.6535 31.1687 24.5407 31.1669 25.0882 30.6193L29.7188 25.9887L43.1988 39.4688H4.80122ZM45.1875 37.48L31.7075 24L45.1875 10.5199V37.48Z" fill="black"/>
</svg>
